<?xml version="1.0" encoding="UTF-8" standalone="no"?>
<!-- Created with Inkscape (http://www.inkscape.org/) -->

<svg
   xmlns:dc="http://purl.org/dc/elements/1.1/"
   xmlns:cc="http://creativecommons.org/ns#"
   xmlns:rdf="http://www.w3.org/1999/02/22-rdf-syntax-ns#"
   xmlns:svg="http://www.w3.org/2000/svg"
   xmlns="http://www.w3.org/2000/svg"
   xmlns:sodipodi="http://sodipodi.sourceforge.net/DTD/sodipodi-0.dtd"
   xmlns:inkscape="http://www.inkscape.org/namespaces/inkscape"
   width="210mm"
   height="297mm"
   viewBox="0 0 210 297"
   version="1.1"
   id="svg8"
   inkscape:version="0.92.4 (5da689c313, 2019-01-14)"
   sodipodi:docname="monitoring_device.svg">
  <defs
     id="defs2" />
  <sodipodi:namedview
     id="base"
     pagecolor="#ffffff"
     bordercolor="#666666"
     borderopacity="1.0"
     inkscape:pageopacity="0.0"
     inkscape:pageshadow="2"
     inkscape:zoom="3.959798"
     inkscape:cx="156.82562"
     inkscape:cy="624.64897"
     inkscape:document-units="mm"
     inkscape:current-layer="g829"
     showgrid="false"
     inkscape:window-width="1920"
     inkscape:window-height="1017"
     inkscape:window-x="-8"
     inkscape:window-y="-8"
     inkscape:window-maximized="1" />
  <metadata
     id="metadata5">
    <rdf:RDF>
      <cc:Work
         rdf:about="">
        <dc:format>image/svg+xml</dc:format>
        <dc:type
           rdf:resource="http://purl.org/dc/dcmitype/StillImage" />
        <dc:title></dc:title>
      </cc:Work>
    </rdf:RDF>
  </metadata>
  <g
     inkscape:label="Layer 1"
     inkscape:groupmode="layer"
     id="layer1">
    <g
       style="fill:none;stroke:currentColor;stroke-width:2;stroke-linecap:round;stroke-linejoin:round"
       id="g829"
       transform="matrix(0.26458333,0,0,0.26458333,-139.90789,169.09286)">
      <g
         style="opacity:0.97000002;fill:none;stroke:#212529;stroke-width:2;stroke-linecap:round;stroke-linejoin:round;stroke-opacity:1"
         id="g842"
         transform="matrix(0.54542153,0,0,0.54542153,689.81558,-162.47028)">
        <polyline
           id="polyline831"
           points="22 12 18 12 15 21 9 3 6 12 2 12"
           style="stroke:#212529;stroke-opacity:1" />
      </g>
      <g
         style="opacity:0.97000002;fill:none;stroke:#212529;stroke-width:2;stroke-linecap:round;stroke-linejoin:round;stroke-opacity:1"
         id="g861"
         transform="translate(684.36064,-165.93234)">
        <rect
           id="rect844"
           ry="2"
           rx="2"
           height="14"
           width="20"
           y="3"
           x="2"
           style="stroke:#212529;stroke-opacity:1" />
        <line
           id="line846"
           y2="21"
           x2="16"
           y1="21"
           x1="8"
           style="stroke:#212529;stroke-opacity:1" />
        <line
           id="line848"
           y2="21"
           x2="12"
           y1="17"
           x1="12"
           style="stroke:#212529;stroke-opacity:1" />
      </g>
    </g>
  </g>
</svg>
